…
endpoint <- vapply(wrappers, extract_endpoint, character(1))

mappings <- tibble::tibble(
  r_function = paste0("`", wrappers, "()`"),
  endpoint   = endpoint
) |>
  dplyr::filter(!is.na(endpoint)) |>
  dplyr::left_join(
    catalog |> dplyr::select(endpoint, group, title),
    by = "endpoint"
  ) |>
  dplyr::arrange(group, endpoint, r_function)

mappings
#> # A tibble: 71 × 4
#>    r_function                       endpoint                         group title
#>    <chr>                            <chr>                            <chr> <chr>
#>  1 `tce_state_price_comparison()`   ComparativoPrecoEstado           Desp… Iten…
#>  2 `tce_state_expenditures()`       DespesasEstaduais                Desp… Rela…
#>  3 `tce_municipal_expenditures()`   DespesasMunicipais               Desp… Rela…
#>  4 `tce_commitment_liquidations()`  EmpenhoLiquidacao                Desp… Rela…
#>  5 `tce_commitment_payments()`      EmpenhoPagamento                 Desp… Rela…
#>  6 `tce_commitment_summary()`       EmpenhoResumo                    Desp… Rela…
#>  7 `tce_state_commitment_items()`   ItemEmpenhoEstadual              Desp… Rela…
#>  8 `tce_state_creditor_types()`     TipoCredorEstadual               Desp… List…
#>  9 `tce_municipal_creditor_types()` TipoCredorMunicipal              Desp… List…
#> 10 `tce_municipal_transfers()`      TransferenciasConcedidasMunicip… Desp… Rela…
#> # ℹ 61 more rows
```
…
