…
## Value

A tibble with columns `endpoint`, `group`, `title`, and `url`.

## See also

[`tce_params()`](https://strategicprojects.github.io/tceper/reference/tce_params.md),
[`tce_fields()`](https://strategicprojects.github.io/tceper/reference/tce_fields.md),
[`tce_endpoint()`](https://strategicprojects.github.io/tceper/reference/tce_endpoint.md)

## Examples

``` r
tce_catalog()
#> # A tibble: 71 × 4
#>    endpoint            group    title                                      url  
#>    <chr>               <chr>    <chr>                                      <chr>
#>  1 ReceitasEstaduais   Receitas Relação das Receitas Estaduais             http…
#>  2 ReceitasMunicipais  Receitas Relação das Receitas Municipais            http…
#>  3 ReceitasPrevistas   Receitas Relação das Receitas Previstas (apenas Mu… http…
#>  4 DespesasEstaduais   Despesas Relação das Despesas Estaduais             http…
#>  5 DespesasMunicipais  Despesas Relação das Despesas Municipais - Chave c… http…
#>  6 EmpenhoLiquidacao   Despesas Relação das Liquidações dos Empenhos Muni… http…
#>  7 EmpenhoPagamento    Despesas Relação dos Pagamentos dos Empenhos (apen… http…
#>  8 EmpenhoResumo       Despesas Relação dos Valores Originais, Reforços e… http…
#>  9 TipoCredorMunicipal Despesas Lista dos tipos de credores Municipal      http…
#> 10 TipoCredorEstadual  Despesas Lista dos tipos de credores Estadual       http…
#> # ℹ 61 more rows
…
