…
## Examples

``` r
tce_fields("Contratos")
#> ── Contratos has 26 fields: ────────────────────────────────────────────────────
#> ℹ UnidadeGestora, UnidadeOrcamentaria, Esfera, Municipio, NumeroContrato,
#>   AnoContrato, TipoProcesso, AnoProcesso, CPF_CNPJ, TipoDocumento,
#>   NumeroDocumento, NumeroDocumentoAjustado, RazaoSocial, Objeto, Vigencia,
#>   Valor, Estagio, Situacao, SiglaUG, CodigoUG, CodigoEfiscoUG, CodigoAudinUG,
#>   PortariaComissaoLicitacao, LinkArquivo, CodigoContrato, CodigoPL.
#> ── Dictionary ──────────────────────────────────────────────────────────────────
#> # A tibble: 26 × 3
#>    name                type      description                              
#>  * <chr>               <chr>     <chr>                                    
#>  1 UnidadeGestora      character Unidade Gestora                          
#>  2 UnidadeOrcamentaria character Unidade Gestora da SCA_LicitacoesDetalhes
#>  3 Esfera              character Esfera (E -Estadual ou M - Municipal)    
#>  4 Municipio           character Município                                
#>  5 NumeroContrato      character Número do Contrato                       
#>  6 AnoContrato         character Ano do Contrato                          
#>  7 TipoProcesso        character Tipo do Processo                         
#>  8 AnoProcesso         character Ano do Processo                          
#>  9 CPF_CNPJ            character CPF ou CNPJ do Contratado                
#> 10 TipoDocumento       character Tipo do Documento do Contratado          
#> # ℹ 16 more rows
…
