…
## Examples

``` r
tce_params("Contratos")
#> ── Contratos has 24 parameters: ────────────────────────────────────────────────
#> ℹ unidade_gestora, unidade_orcamentaria, esfera, municipio, objeto,
#>   numero_contrato, ano_contrato, tipo_processo, ano_processo, cpf_cnpj,
#>   tipo_documento, numero_documento, numero_documento_ajustado, razao_social,
#>   estagio, situacao, valor, sigla_ug, codigo_ug, codigo_efisco_ug,
#>   codigo_audin_ug, portaria_comissao_licitacao, codigo_contrato, codigo_pl.
#> ── Dictionary ──────────────────────────────────────────────────────────────────
#> # A tibble: 24 × 5
#>    api_name            r_name               required type      description      
#>  * <chr>               <chr>                <lgl>    <chr>     <chr>            
#>  1 UnidadeGestora      unidade_gestora      FALSE    character Unidade Gestora  
#>  2 UnidadeOrcamentaria unidade_orcamentaria FALSE    character Unidade Gestora …
#>  3 Esfera              esfera               FALSE    character Esfera (E - Esta…
#>  4 Municipio           municipio            FALSE    character Município        
#>  5 Objeto              objeto               FALSE    character Objeto           
#>  6 NumeroContrato      numero_contrato      FALSE    character Número do Contra…
#>  7 AnoContrato         ano_contrato         FALSE    character Ano do Contrato  
#>  8 TipoProcesso        tipo_processo        FALSE    character Tipo do Processo 
#>  9 AnoProcesso         ano_processo         FALSE    character Ano do Processo  
#> 10 CPF_CNPJ            cpf_cnpj             FALSE    character CPF ou CNPJ do C…
#> # ℹ 14 more rows
…
